<svg xmlns="http://www.w3.org/2000/svg" xmlns:xlink="http://www.w3.org/1999/xlink" width="18" height="20" viewBox="0 0 18 20">
    <defs>
        <path id="a" d="M16.016 9h-9.25L5.3 20h13.431L17.265 9h-1.25zm-8-2V6a4 4 0 0 1 8 0v1h1.249a2 2 0 0 1 1.982 1.736l1.467 11A2 2 0 0 1 18.731 22H5.301a2 2 0 0 1-1.983-2.264l1.466-11A2 2 0 0 1 6.767 7h1.249zm2 0h4V6a2 2 0 1 0-4 0v1z"/>
    </defs>
    <g fill="none" fill-rule="evenodd" transform="translate(-3 -2)">
        <path fill-rule="nonzero" d="M0 0h24v24H0z"/>
        <use fill="#FFF" xlink:href="#a"/>
    </g>
</svg>
